digraph G {
"kinect_link7" -> "camera_depth_optical_frame"[label="Broadcaster: /robot_state_publisher\nAverage rate: 100.206 Hz\nMost recent transform: 25.634 ( -0.495 sec old)\nBuffer length: 4.860 sec\n"];
"kinect_link6" -> "kinect_link7"[label="Broadcaster: /robot_state_publisher\nAverage rate: 50.206 Hz\nMost recent transform: 25.138 ( 0.001 sec old)\nBuffer length: 4.860 sec\n"];
"world" -> "kinect_link1"[label="Broadcaster: /robot_state_publisher\nAverage rate: 100.206 Hz\nMost recent transform: 25.634 ( -0.495 sec old)\nBuffer length: 4.860 sec\n"];
"camera_depth_optical_frame" -> "camera_rgb_optical_frame"[label="Broadcaster: /robot_state_publisher\nAverage rate: 100.206 Hz\nMost recent transform: 25.634 ( -0.495 sec old)\nBuffer length: 4.860 sec\n"];
"kinect_link4" -> "kinect_link5"[label="Broadcaster: /robot_state_publisher\nAverage rate: 50.206 Hz\nMost recent transform: 25.138 ( 0.001 sec old)\nBuffer length: 4.860 sec\n"];
"kinect_link3" -> "kinect_link4"[label="Broadcaster: /robot_state_publisher\nAverage rate: 50.206 Hz\nMost recent transform: 25.138 ( 0.001 sec old)\nBuffer length: 4.860 sec\n"];
"kinect_link2" -> "kinect_link3"[label="Broadcaster: /robot_state_publisher\nAverage rate: 50.206 Hz\nMost recent transform: 25.138 ( 0.001 sec old)\nBuffer length: 4.860 sec\n"];
"kinect_link1" -> "kinect_link2"[label="Broadcaster: /robot_state_publisher\nAverage rate: 50.206 Hz\nMost recent transform: 25.138 ( 0.001 sec old)\nBuffer length: 4.860 sec\n"];
"kinect_link5" -> "kinect_link6"[label="Broadcaster: /robot_state_publisher\nAverage rate: 50.206 Hz\nMost recent transform: 25.138 ( 0.001 sec old)\nBuffer length: 4.860 sec\n"];
edge [style=invis];
 subgraph cluster_legend { style=bold; color=black; label ="view_frames Result";
"Recorded at time: 25.139"[ shape=plaintext ] ;
 }->"world";
}